{
  "project_info": {
    "project_number": "854076958973",
    "project_id": "labmobile-afdhal",
    "storage_bucket": "labmobile-afdhal.appspot.com"
  },
  "client": [
    {
      "client_info": {
        "mobilesdk_app_id": "1:854076958973:android:9a7493797f4bba7e8cb694",
        "android_client_info": {
          "package_name": "com.example.firebase_tart"
        }
      },
      "oauth_client": [
        {
          "client_id": "854076958973-lf08tqea2c7lnf1jn5bfbn2mahmu3270.apps.googleusercontent.com",
          "client_type": 3
        }
      ],
      "api_key": [
        {
          "current_key": "AIzaSyAyEKANeeayW8ATAxDsmHAhvocnAggEafc"
        }
      ],
      "services": {
        "appinvite_service": {
          "other_platform_oauth_client": [
            {
              "client_id": "854076958973-lf08tqea2c7lnf1jn5bfbn2mahmu3270.apps.googleusercontent.com",
              "client_type": 3
            }
          ]
        }
      }
    }
  ],
  "configuration_version": "1"
}